<svg xmlns="http://www.w3.org/2000/svg" xmlns:xlink="http://www.w3.org/1999/xlink" preserveAspectRatio="xMidYMid" width="825" height="600" viewBox="0 0 825 600">
  <defs>
    <style>

      .cls-3 {
        fill: #fae2bf;
      }
    </style>
  </defs>
  <g id="reserved-">
    <path d="M783.107,196.589 C783.107,196.589 565.789,196.589 565.789,196.589 C565.789,196.589 565.789,264.895 565.789,264.895 C565.789,264.895 490.335,264.895 490.335,264.895 C490.335,264.895 490.335,196.589 490.335,196.589 C490.335,196.589 476.529,196.589 476.529,196.589 C476.529,196.589 476.529,41.650 476.529,41.650 C476.529,41.650 531.751,41.650 531.751,41.650 C531.751,41.650 531.751,0.000 531.751,0.000 C531.751,0.000 650.288,0.000 650.288,0.000 C650.288,0.000 650.288,41.650 650.288,41.650 C650.288,41.650 783.107,41.650 783.107,41.650 C783.107,41.650 783.107,196.589 783.107,196.589 Z" id="path-1" class="cls-3" fill-rule="evenodd"/>
    <path d="M824.762,330.107 C824.762,330.107 783.107,330.107 783.107,330.107 C783.107,330.107 783.107,396.271 783.107,396.271 C783.107,396.271 564.361,396.271 564.361,396.271 C564.361,396.271 564.361,197.303 564.361,197.303 C564.361,197.303 783.107,197.303 783.107,197.303 C783.107,197.303 783.107,211.583 783.107,211.583 C783.107,211.583 824.762,211.583 824.762,211.583 C824.762,211.583 824.762,330.107 824.762,330.107 Z" id="path-2" class="cls-3" fill-rule="evenodd"/>
    <path d="M783.107,558.112 C783.107,558.112 639.101,558.112 639.101,558.112 C639.101,558.112 639.101,599.762 639.101,599.762 C639.101,599.762 526.515,599.762 526.515,599.762 C526.515,599.762 526.515,558.112 526.515,558.112 C526.515,558.112 479.147,558.112 479.147,558.112 C479.147,558.112 479.147,329.869 479.147,329.869 C479.147,329.869 565.551,329.869 565.551,329.869 C565.551,329.869 565.551,402.221 565.551,402.221 C565.551,402.221 783.107,402.221 783.107,402.221 C783.107,402.221 783.107,558.112 783.107,558.112 Z" id="path-3" class="cls-3" fill-rule="evenodd"/>
    <path d="M468.912,558.112 C468.912,558.112 468.912,599.524 468.912,599.524 C468.912,599.524 350.375,599.524 350.375,599.524 C350.375,599.524 350.375,558.112 350.375,558.112 C350.375,558.112 290.154,558.112 290.154,558.112 C290.154,558.112 290.154,329.869 290.154,329.869 C290.154,329.869 481.052,329.869 481.052,329.869 C481.052,329.869 481.052,558.112 481.052,558.112 C481.052,558.112 468.912,558.112 468.912,558.112 Z" id="path-4" class="cls-3" fill-rule="evenodd"/>
    <path d="M183.756,558.826 C183.756,558.826 183.756,599.762 183.756,599.762 C183.756,599.762 65.457,599.762 65.457,599.762 C65.457,599.762 65.457,558.826 65.457,558.826 C65.457,558.826 41.893,558.826 41.893,558.826 C41.893,558.826 41.893,329.869 41.893,329.869 C41.893,329.869 288.250,329.869 288.250,329.869 C288.250,329.869 288.250,558.826 288.250,558.826 C288.250,558.826 183.756,558.826 183.756,558.826 Z" id="path-5" class="cls-3" fill-rule="evenodd"/>
    <path d="M243.263,270.369 C243.263,270.369 243.263,333.915 243.263,333.915 C243.263,333.915 139.484,333.915 139.484,333.915 C139.484,333.915 139.484,339.389 139.484,339.389 C139.484,339.389 41.893,339.389 41.893,339.389 C41.893,339.389 41.893,290.837 41.893,290.837 C41.893,290.837 0.000,290.837 0.000,290.837 C0.000,290.837 0.000,126.616 0.000,126.616 C0.000,126.616 41.893,126.616 41.893,126.616 C41.893,126.616 41.893,41.888 41.893,41.888 C41.893,41.888 139.484,41.888 139.484,41.888 C139.484,41.888 139.484,194.209 139.484,194.209 C139.484,194.209 270.636,194.209 270.636,194.209 C270.636,194.209 270.636,270.369 270.636,270.369 C270.636,270.369 243.263,270.369 243.263,270.369 Z" id="path-6" class="cls-3" fill-rule="evenodd"/>
    <path d="M350.137,197.303 C350.137,197.303 350.137,267.037 350.137,267.037 C350.137,267.037 266.352,267.037 266.352,267.037 C266.352,267.037 266.352,197.303 266.352,197.303 C266.352,197.303 138.055,197.303 138.055,197.303 C138.055,197.303 138.055,41.888 138.055,41.888 C138.055,41.888 194.706,41.888 194.706,41.888 C194.706,41.888 194.706,0.000 194.706,0.000 C194.706,0.000 330.143,0.000 330.143,0.000 C330.143,0.000 330.143,41.888 330.143,41.888 C330.143,41.888 354.183,41.888 354.183,41.888 C354.183,41.888 354.183,197.303 354.183,197.303 C354.183,197.303 350.137,197.303 350.137,197.303 Z" id="path-7" class="cls-3" fill-rule="evenodd"/>
  </g>
</svg>
