<svg xmlns="http://www.w3.org/2000/svg" xmlns:xlink="http://www.w3.org/1999/xlink" preserveAspectRatio="xMidYMid" width="825" height="600" viewBox="0 0 825 600">
  <defs>
    <style>

      .cls-5 {
        fill: #fae2bf;
      }

      .cls-12 {
        fill: #f3d0d0;
      }
    </style>
  </defs>
  <g id="9th-floor">
    <g id="reserved-">
      <path d="M782.857,264.895 C782.857,264.895 476.279,264.895 476.279,264.895 C476.279,264.895 476.279,41.888 476.279,41.888 C476.279,41.888 531.501,41.888 531.501,41.888 C531.501,41.888 531.501,0.000 531.501,0.000 C531.501,0.000 650.038,0.000 650.038,0.000 C650.038,0.000 650.038,41.888 650.038,41.888 C650.038,41.888 782.857,41.888 782.857,41.888 C782.857,41.888 782.857,264.895 782.857,264.895 Z" id="path-1" class="free flat-shape" fill-rule="evenodd"/>
      <path d="M824.750,436.493 C824.750,436.493 782.857,436.493 782.857,436.493 C782.857,436.493 782.857,558.112 782.857,558.112 C782.857,558.112 564.111,558.112 564.111,558.112 C564.111,558.112 564.111,262.277 564.111,262.277 C564.111,262.277 782.857,262.277 782.857,262.277 C782.857,262.277 782.857,317.969 782.857,317.969 C782.857,317.969 824.750,317.969 824.750,317.969 C824.750,317.969 824.750,436.493 824.750,436.493 Z" id="path-2" class="free flat-shape" fill-rule="evenodd"/>
      <path d="M521.980,558.112 C521.980,558.112 521.980,600.000 521.980,600.000 C521.980,600.000 414.154,600.000 414.154,600.000 C414.154,600.000 414.154,558.112 414.154,558.112 C414.154,558.112 412.250,558.112 412.250,558.112 C412.250,558.112 412.250,329.869 412.250,329.869 C412.250,329.869 565.539,329.869 565.539,329.869 C565.539,329.869 565.539,558.112 565.539,558.112 C565.539,558.112 521.980,558.112 521.980,558.112 Z" id="path-3" class="free flat-shape" fill-rule="evenodd"/>
      <path d="M352.981,558.112 C352.981,558.112 352.981,599.762 352.981,599.762 C352.981,599.762 245.155,599.762 245.155,599.762 C245.155,599.762 245.155,557.874 245.155,557.874 C245.155,557.874 200.406,557.874 200.406,557.874 C200.406,557.874 200.406,402.697 200.406,402.697 C200.406,402.697 254.914,402.697 254.914,402.697 C254.914,402.697 254.914,329.869 254.914,329.869 C254.914,329.869 407.965,329.869 407.965,329.869 C407.965,329.869 407.965,558.112 407.965,558.112 C407.965,558.112 352.981,558.112 352.981,558.112 Z" id="path-4" class="free flat-shape" fill-rule="evenodd"/>
      <path d="M198.740,402.697 C198.740,402.697 198.740,558.112 198.740,558.112 C198.740,558.112 41.643,558.112 41.643,558.112 C41.643,558.112 41.643,402.697 41.643,402.697 C41.643,402.697 41.643,398.413 41.643,398.413 C41.643,398.413 41.643,396.271 41.643,396.271 C41.643,396.271 -0.012,396.271 -0.012,396.271 C-0.012,396.271 -0.012,277.985 -0.012,277.985 C-0.012,277.985 41.643,277.985 41.643,277.985 C41.643,277.985 41.643,266.085 41.643,266.085 C41.643,266.085 259.437,266.085 259.437,266.085 C259.437,266.085 259.437,402.697 259.437,402.697 C259.437,402.697 198.740,402.697 198.740,402.697 Z" id="path-5" class="free flat-shape" fill-rule="evenodd"/>
      <path d="M354.171,267.037 C354.171,267.037 41.643,267.037 41.643,267.037 C41.643,267.037 41.643,41.888 41.643,41.888 C41.643,41.888 194.456,41.888 194.456,41.888 C194.456,41.888 194.456,0.000 194.456,0.000 C194.456,0.000 329.893,0.000 329.893,0.000 C329.893,0.000 329.893,41.888 329.893,41.888 C329.893,41.888 354.171,41.888 354.171,41.888 C354.171,41.888 354.171,267.037 354.171,267.037 Z" id="path-6" class="free flat-shape" fill-rule="evenodd"/>
    </g>
  </g>
</svg>
