<?xml version="1.0" encoding="UTF-8" standalone="no"?>
<svg
   xmlns:dc="http://purl.org/dc/elements/1.1/"
   xmlns:cc="http://creativecommons.org/ns#"
   xmlns:rdf="http://www.w3.org/1999/02/22-rdf-syntax-ns#"
   xmlns:svg="http://www.w3.org/2000/svg"
   xmlns="http://www.w3.org/2000/svg"
   xmlns:xlink="http://www.w3.org/1999/xlink"
   xmlns:sodipodi="http://sodipodi.sourceforge.net/DTD/sodipodi-0.dtd"
   xmlns:inkscape="http://www.inkscape.org/namespaces/inkscape"
   width="50px"
   height="61px"
   id="svg2"
   version="1.1"
   inkscape:version="0.91 r13725"
   sodipodi:docname="callout-basket-hover.svg">
  <metadata
     id="metadata51">
    <rdf:RDF>
      <cc:Work
         rdf:about="">
        <dc:format>image/svg+xml</dc:format>
        <dc:type
           rdf:resource="http://purl.org/dc/dcmitype/StillImage" />
        <dc:title></dc:title>
      </cc:Work>
    </rdf:RDF>
  </metadata>
  <sodipodi:namedview
     pagecolor="#ffffff"
     bordercolor="#666666"
     borderopacity="1"
     objecttolerance="10"
     gridtolerance="10"
     guidetolerance="10"
     inkscape:pageopacity="0"
     inkscape:pageshadow="2"
     inkscape:window-width="1920"
     inkscape:window-height="1027"
     id="namedview49"
     showgrid="false"
     inkscape:zoom="5.4713836"
     inkscape:cx="-6.6914176"
     inkscape:cy="8.7909353"
     inkscape:window-x="-8"
     inkscape:window-y="-8"
     inkscape:window-maximized="1"
     inkscape:current-layer="svg2" />
  <filter
     id="filter0"
     x="-7.89%"
     y="-8.11%"
     width="115.79%"
     height="116.22%"
     filterUnits="objectBoundingBox">
    <feGaussianBlur
       in="SourceAlpha"
       result="dsBlurOut"
       stdDeviation="1.50"
       id="feGaussianBlur5" />
    <feFlood
       result="dsFloodOut"
       flood-color="rgb(0,0,0)"
       id="feFlood7" />
    <feComposite
       in="dsFloodOut"
       in2="dsBlurOut"
       result="dsShadow"
       operator="atop"
       id="feComposite9" />
    <feComponentTransfer
       in="dsShadow"
       result="dsShadowOpacity"
       id="feComponentTransfer11">
      <feFuncA
         type="linear"
         slope="0.30"
         id="feFuncA13" />
    </feComponentTransfer>
    <feOffset
       in="dsShadowOpacity"
       dx="0.00"
       dy="0.00"
       result="dsOffset"
       id="feOffset15" />
    <feComposite
       in="dsOffset"
       in2="SourceAlpha"
       result="dropShadow"
       operator="out"
       id="feComposite17" />
  </filter>
  <linearGradient
     id="linear_PSgrad_0"
     x1="50%"
     x2="50%"
     y1="100%"
     y2="0%">
    <stop
       offset="0%"
       stop-color="rgb(0,0,0)"
       stop-opacity="1"
       id="stop20" />
    <stop
       offset="100%"
       stop-color="rgb(255,255,255)"
       stop-opacity="1"
       id="stop22" />
  </linearGradient>
  <defs
     id="defs24">
    <circle
       id="symbol0"
       cx="25.00"
       cy="25.00"
       r="18.00" />
  </defs>
  <path
     opacity="0.30"
     fill="rgb(0,0,0)"
     fill-rule="evenodd"
     d="M 42.68 43.13C 42.68 43.13 25 61 25 61 25 61 7.32 43.13 7.32 43.13 7.32 43.13 7.32 43.13 7.32 43.13 2.8 38.56-0 32.24-0 25.27-0 11.31 11.19-0 25-0 38.81-0 50 11.31 50 25.27 50 32.24 47.2 38.56 42.68 43.13Z"
     id="path27" />
  <g
     id="g29"
     style="fill:#1c1c1a;fill-opacity:1">
    <use
       xlink:href="#symbol0"
       filter="url(#filter0)"
       id="use31"
       style="fill:#1c1c1a;fill-opacity:1" />
    <use
       xlink:href="#symbol0"
       fill="rgb(255,255,255)"
       id="use33"
       style="fill:#1c1c1a;fill-opacity:1" />
    <use
       opacity="0.05"
       xlink:href="#symbol0"
       fill="url(#linear_PSgrad_0)"
       id="use35"
       style="fill:#1c1c1a;fill-opacity:1" />
  </g>
  <g
     id="g37"
     style="stroke:none;stroke-opacity:1;fill:#ffffff;fill-opacity:1">
    <path
       fill="rgb(29,29,27)"
       fill-rule="evenodd"
       d="M 32 25C 32 25 32 23 32 23 32 23 18 23 18 23 18 23 18 25 18 25 18 25 32 25 32 25M 33 26C 33 26 17 26 17 26 17 26 17 22 17 22 17 22 33 22 33 22 33 22 33 26 33 26 33 26 33 26 33 26Z"
       id="path39"
       style="stroke:none;stroke-opacity:1;fill:#ffffff;fill-opacity:1" />
    <path
       fill="rgb(29,29,27)"
       fill-rule="evenodd"
       d="M 30.12 32C 30.12 32 30.87 26 30.87 26 30.87 26 19.13 26 19.13 26 19.13 26 19.88 32 19.88 32 19.88 32 30.12 32 30.12 32M 31 33C 31 33 19 33 19 33 19 33 18 25 18 25 18 25 32 25 32 25 32 25 31 33 31 33 31 33 31 33 31 33Z"
       id="path41"
       style="stroke:none;stroke-opacity:1;fill:#ffffff;fill-opacity:1" />
    <path
       fill="rgb(29,29,27)"
       fill-rule="evenodd"
       d="M 28 28C 28 28 22 28 22 28 22 28 22 27 22 27 22 27 28 27 28 27 28 27 28 28 28 28 28 28 28 28 28 28Z"
       id="path43"
       style="stroke:none;stroke-opacity:1;fill:#ffffff;fill-opacity:1" />
    <path
       fill="rgb(29,29,27)"
       fill-rule="evenodd"
       d="M 28 30C 28 30 22 30 22 30 22 30 22 29 22 29 22 29 28 29 28 29 28 29 28 30 28 30 28 30 28 30 28 30Z"
       id="path45"
       style="stroke:none;stroke-opacity:1;fill:#ffffff;fill-opacity:1" />
    <path
       fill="rgb(29,29,27)"
       fill-rule="evenodd"
       d="M 27.07 18.15C 27.07 18.15 27.93 18.65 27.93 18.65 28.17 18.79 28.25 19.1 28.12 19.33 28.12 19.33 25.62 23.66 25.62 23.66 25.48 23.9 25.17 23.99 24.93 23.85 24.93 23.85 24.07 23.35 24.07 23.35 23.83 23.21 23.75 22.9 23.88 22.66 23.88 22.66 26.38 18.33 26.38 18.33 26.52 18.1 26.83 18.01 27.07 18.15Z"
       id="path47"
       style="stroke:none;stroke-opacity:1;fill:#ffffff;fill-opacity:1" />
  </g>
</svg>
