<?xml version="1.0" encoding="UTF-8" standalone="no"?>
<svg
   xmlns:dc="http://purl.org/dc/elements/1.1/"
   xmlns:cc="http://creativecommons.org/ns#"
   xmlns:rdf="http://www.w3.org/1999/02/22-rdf-syntax-ns#"
   xmlns:svg="http://www.w3.org/2000/svg"
   xmlns="http://www.w3.org/2000/svg"
   xmlns:sodipodi="http://sodipodi.sourceforge.net/DTD/sodipodi-0.dtd"
   xmlns:inkscape="http://www.inkscape.org/namespaces/inkscape"
   height="144"
   viewBox="0 0 50 150"
   width="48"
   version="1.1"
   preserveAspectRatio="xMidYMid"
   id="svg2"
   inkscape:version="0.91 r13725"
   sodipodi:docname="house-prev-arr.svg">
  <metadata
     id="metadata22">
    <rdf:RDF>
      <cc:Work
         rdf:about="">
        <dc:format>image/svg+xml</dc:format>
        <dc:type
           rdf:resource="http://purl.org/dc/dcmitype/StillImage" />
        <dc:title></dc:title>
      </cc:Work>
    </rdf:RDF>
  </metadata>
  <sodipodi:namedview
     pagecolor="#ffffff"
     bordercolor="#666666"
     borderopacity="1"
     objecttolerance="10"
     gridtolerance="10"
     guidetolerance="10"
     inkscape:pageopacity="0"
     inkscape:pageshadow="2"
     inkscape:window-width="1366"
     inkscape:window-height="669"
     id="namedview20"
     showgrid="false"
     inkscape:zoom="1.6388889"
     inkscape:cx="-66.468172"
     inkscape:cy="49.99203"
     inkscape:window-x="-8"
     inkscape:window-y="304"
     inkscape:window-maximized="1"
     inkscape:current-layer="svg2" />
  <defs
     id="defs4">
    <style
       id="style6">.cls-3 {
        stroke: #1d1d1b;
        stroke-width: 2px;
        fill: none;
      }
      .cls-4 {
        fill: #1d1d1b;
        stroke: #1d1d1b;
        stroke-width: 2px;
        fill-opacity: 0.1;
      }</style>
  </defs>
  <circle
     style="stroke:#1d1d1b;stroke-width:2px;fill:#1d1d1b;fill-opacity:.1"
     class="cls-4"
     cy="75"
     cx="25"
     r="24"
     id="circle8"
     inkscape:export-xdpi="180"
     inkscape:export-ydpi="180" />
  <path
     d="m26.094 80.999s-5.727-6-5.727-6l5.727-5.999"
     style="stroke:#1d1d1b;stroke-width:2px;fill:none"
     class="cls-3"
     id="path10"
     inkscape:export-xdpi="180"
     inkscape:export-ydpi="180" />
  <circle
     style="stroke:#1d1d1b;stroke-width:2px;fill:none"
     class="cls-4"
     cy="25"
     cx="25"
     r="24"
     id="circle12"
     inkscape:export-xdpi="180"
     inkscape:export-ydpi="180" />
  <path
     class="cls-3"
     style="stroke:#1d1d1b;stroke-width:2px;fill:none"
     d="m26.094 30.999s-5.727-6-5.727-6l5.727-5.999"
     id="path14"
     inkscape:export-xdpi="180"
     inkscape:export-ydpi="180" />
  <circle
     style="stroke:#1d1d1b;stroke-width:2px;fill:#1d1d1b;fill-opacity:1"
     class="cls-4"
     cy="125"
     cx="25"
     r="24"
     id="circle16"
     inkscape:export-xdpi="180"
     inkscape:export-ydpi="180" />
  <path
     class="cls-3"
     style="stroke:#fff;stroke-width:2px;fill:none"
     d="m26.094 131s-5.727-6-5.727-6l5.727-5.999"
     id="path18"
     inkscape:export-xdpi="180"
     inkscape:export-ydpi="180" />
</svg>
