<?xml version="1.0" encoding="utf-8"?>
<svg xmlns="http://www.w3.org/2000/svg"
	xmlns:xlink="http://www.w3.org/1999/xlink"
	width="84px" height="84px">
<filter id="elementToMask" x="0%" y="0%" width="100%" height="100%" filterUnits="objectBoundingBox">
<feColorMatrix type="matrix" in="SourceGraphic" values="0 0 0 1 0 0 0 0 1 0 0 0 0 1 0 0 0 0 1 0"/>
</filter>
<filter id="filter0" x="1.#J%" y="1.#J%" width="1.#J%" height="1.#J%" filterUnits="objectBoundingBox">
<feFlood result="coFloodOut" flood-color="rgb(227,161,1)"/>
<feComposite in="coFloodOut" in2="SourceAlpha" result="coOverlay" operator="atop"/>
<feComponentTransfer in="coOverlay" result="colorOverlay">
<feFuncA type="linear" slope="1.00"/>
</feComponentTransfer>
<feMerge>
<feMergeNode in="colorOverlay"/>
</feMerge>
</filter>
<filter id="filter1" x="1.#J%" y="1.#J%" width="1.#J%" height="1.#J%" filterUnits="objectBoundingBox">
<feFlood result="coFloodOut" flood-color="rgb(227,161,1)"/>
<feComposite in="coFloodOut" in2="SourceAlpha" result="coOverlay" operator="atop"/>
<feComponentTransfer in="coOverlay" result="colorOverlay">
<feFuncA type="linear" slope="1.00"/>
</feComponentTransfer>
<feMerge>
<feMergeNode in="colorOverlay"/>
</feMerge>
</filter>
<filter id="filter2" x="1.#J%" y="1.#J%" width="1.#J%" height="1.#J%" filterUnits="objectBoundingBox">
<feFlood result="coFloodOut" flood-color="rgb(227,161,1)"/>
<feComposite in="coFloodOut" in2="SourceAlpha" result="coOverlay" operator="atop"/>
<feComponentTransfer in="coOverlay" result="colorOverlay">
<feFuncA type="linear" slope="1.00"/>
</feComponentTransfer>
<feMerge>
<feMergeNode in="colorOverlay"/>
</feMerge>
</filter>
<filter id="filter3" x="1.#J%" y="1.#J%" width="1.#J%" height="1.#J%" filterUnits="objectBoundingBox">
<feFlood result="coFloodOut" flood-color="rgb(227,161,1)"/>
<feComposite in="coFloodOut" in2="SourceAlpha" result="coOverlay" operator="atop"/>
<feComponentTransfer in="coOverlay" result="colorOverlay">
<feFuncA type="linear" slope="1.00"/>
</feComponentTransfer>
<feMerge>
<feMergeNode in="colorOverlay"/>
</feMerge>
</filter>
<mask id="mask0">
<use xlink:href="#symbol0" filter="url(#elementToMask)"/>
</mask>
<mask id="mask1">
<use xlink:href="#symbol1" filter="url(#elementToMask)"/>
</mask>
<mask id="mask2">
<use xlink:href="#symbol2" filter="url(#elementToMask)"/>
</mask>
<mask id="mask3">
<use xlink:href="#symbol3" filter="url(#elementToMask)"/>
</mask>
<defs>
<g id="symbol0">
<g>
<path fill="rgb(255,255,255)" fill-rule="evenodd" d="M 49 26C 49 26 48 26 48 26 48 24.88 48.65 24.29 49.16 23.83 49.63 23.41 50 23.07 50 22.4 50 21.72 49.63 21.39 49.17 20.97 48.65 20.5 48 19.92 48 18.79 48 17.67 48.65 16.99 49.17 16.52 49.63 16.1 50 16 50 15 50 15 51 15 51 15 51 16 50.35 16.8 49.83 17.27 49.37 17.69 49 18.07 49 18.74 49 19.42 49.37 19.78 49.83 20.2 50.35 20.67 51 21.26 51 22.38 51 23.51 50.35 24.1 49.83 24.56 49.37 24.98 49 25.32 49 26Z"/>
<path fill="rgb(255,255,255)" fill-rule="evenodd" d="M 49 26C 49 26 48 26 48 26 48 24.88 48.65 24.29 49.16 23.83 49.63 23.41 50 23.07 50 22.4 50 21.72 49.63 21.39 49.17 20.97 48.65 20.5 48 19.92 48 18.79 48 17.67 48.65 16.99 49.17 16.52 49.63 16.1 50 16 50 15 50 15 51 15 51 15 51 16 50.35 16.8 49.83 17.27 49.37 17.69 49 18.07 49 18.74 49 19.42 49.37 19.78 49.83 20.2 50.35 20.67 51 21.26 51 22.38 51 23.51 50.35 24.1 49.83 24.56 49.37 24.98 49 25.32 49 26 49 26 49 26 49 26Z"/>
</g>
<g>
<path fill="rgb(255,255,255)" fill-rule="evenodd" d="M 50 26C 50 26 49 26 49 26 49 24.88 49.65 24.29 50.16 23.83 50.63 23.41 51 23.07 51 22.4 51 21.72 50.63 21.39 50.17 20.97 49.65 20.5 49 19.92 49 18.79 49 17.67 49.65 16.99 50.17 16.52 50.63 16.1 51 16 51 15 51 15 52 15 52 15 52 16 51.35 16.8 50.83 17.27 50.37 17.69 50 18.07 50 18.74 50 19.42 50.37 19.78 50.83 20.2 51.35 20.67 52 21.26 52 22.38 52 23.51 51.35 24.1 50.83 24.56 50.37 24.98 50 25.32 50 26Z"/>
<path fill="rgb(255,255,255)" fill-rule="evenodd" d="M 50 26C 50 26 49 26 49 26 49 24.88 49.65 24.29 50.16 23.83 50.63 23.41 51 23.07 51 22.4 51 21.72 50.63 21.39 50.17 20.97 49.65 20.5 49 19.92 49 18.79 49 17.67 49.65 16.99 50.17 16.52 50.63 16.1 51 16 51 15 51 15 52 15 52 15 52 16 51.35 16.8 50.83 17.27 50.37 17.69 50 18.07 50 18.74 50 19.42 50.37 19.78 50.83 20.2 51.35 20.67 52 21.26 52 22.38 52 23.51 51.35 24.1 50.83 24.56 50.37 24.98 50 25.32 50 26 50 26 50 26 50 26Z"/>
</g>
</g>
<g id="symbol1">
<g>
<path fill="rgb(255,255,255)" fill-rule="evenodd" d="M 42 26C 42 26 41 26 41 26 41 24.88 41.65 24.29 42.16 23.83 42.63 23.41 43 23.07 43 22.4 43 21.72 42.63 21.39 42.17 20.97 41.65 20.5 41 19.92 41 18.79 41 17.67 41.65 16.99 42.17 16.52 42.63 16.1 43 16 43 15 43 15 44 15 44 15 44 16 43.35 16.8 42.83 17.27 42.37 17.69 42 18.07 42 18.74 42 19.42 42.37 19.78 42.83 20.2 43.35 20.67 44 21.26 44 22.38 44 23.51 43.35 24.1 42.83 24.56 42.37 24.98 42 25.32 42 26Z"/>
<path fill="rgb(255,255,255)" fill-rule="evenodd" d="M 42 26C 42 26 41 26 41 26 41 24.88 41.65 24.29 42.16 23.83 42.63 23.41 43 23.07 43 22.4 43 21.72 42.63 21.39 42.17 20.97 41.65 20.5 41 19.92 41 18.79 41 17.67 41.65 16.99 42.17 16.52 42.63 16.1 43 16 43 15 43 15 44 15 44 15 44 16 43.35 16.8 42.83 17.27 42.37 17.69 42 18.07 42 18.74 42 19.42 42.37 19.78 42.83 20.2 43.35 20.67 44 21.26 44 22.38 44 23.51 43.35 24.1 42.83 24.56 42.37 24.98 42 25.32 42 26 42 26 42 26 42 26Z"/>
</g>
<g>
<path fill="rgb(255,255,255)" fill-rule="evenodd" d="M 43 26C 43 26 42 26 42 26 42 24.88 42.65 24.29 43.16 23.83 43.63 23.41 44 23.07 44 22.4 44 21.72 43.63 21.39 43.17 20.97 42.65 20.5 42 19.92 42 18.79 42 17.67 42.65 16.99 43.17 16.52 43.63 16.1 44 16 44 15 44 15 45 15 45 15 45 16 44.35 16.8 43.83 17.27 43.37 17.69 43 18.07 43 18.74 43 19.42 43.37 19.78 43.83 20.2 44.35 20.67 45 21.26 45 22.38 45 23.51 44.35 24.1 43.83 24.56 43.37 24.98 43 25.32 43 26Z"/>
<path fill="rgb(255,255,255)" fill-rule="evenodd" d="M 43 26C 43 26 42 26 42 26 42 24.88 42.65 24.29 43.17 23.83 43.63 23.41 44 23.07 44 22.4 44 21.72 43.63 21.39 43.17 20.97 42.65 20.5 42 19.92 42 18.79 42 17.67 42.65 16.99 43.17 16.52 43.63 16.1 44 16 44 15 44 15 45 15 45 15 45 16 44.35 16.8 43.83 17.27 43.37 17.69 43 18.07 43 18.74 43 19.42 43.37 19.78 43.83 20.2 44.35 20.67 45 21.26 45 22.38 45 23.51 44.35 24.1 43.83 24.56 43.37 24.98 43 25.32 43 26 43 26 43 26 43 26Z"/>
</g>
</g>
<g id="symbol2">
<g>
<path fill="rgb(255,255,255)" fill-rule="evenodd" d="M 35 26C 35 26 34 26 34 26 34 24.88 34.65 24.29 35.16 23.83 35.63 23.41 36 23.07 36 22.4 36 21.72 35.63 21.39 35.17 20.97 34.65 20.5 34 19.92 34 18.79 34 17.67 34.65 16.99 35.17 16.52 35.63 16.1 36 16 36 15 36 15 37 15 37 15 37 16 36.35 16.8 35.83 17.27 35.37 17.69 35 18.07 35 18.74 35 19.42 35.37 19.78 35.83 20.2 36.35 20.67 37 21.26 37 22.38 37 23.51 36.35 24.1 35.83 24.56 35.37 24.98 35 25.32 35 26Z"/>
<path fill="rgb(255,255,255)" fill-rule="evenodd" d="M 35 26C 35 26 34 26 34 26 34 24.88 34.65 24.29 35.16 23.83 35.63 23.41 36 23.07 36 22.4 36 21.72 35.63 21.39 35.17 20.97 34.65 20.5 34 19.92 34 18.79 34 17.67 34.65 16.99 35.17 16.52 35.63 16.1 36 16 36 15 36 15 37 15 37 15 37 16 36.35 16.8 35.83 17.27 35.37 17.69 35 18.07 35 18.74 35 19.42 35.37 19.78 35.83 20.2 36.35 20.67 37 21.26 37 22.38 37 23.51 36.35 24.1 35.83 24.56 35.37 24.98 35 25.32 35 26 35 26 35 26 35 26Z"/>
</g>
<g>
<path fill="rgb(255,255,255)" fill-rule="evenodd" d="M 36 26C 36 26 35 26 35 26 35 24.88 35.65 24.29 36.16 23.83 36.63 23.41 37 23.07 37 22.4 37 21.72 36.63 21.39 36.17 20.97 35.65 20.5 35 19.92 35 18.79 35 17.67 35.65 16.99 36.17 16.52 36.63 16.1 37 16 37 15 37 15 38 15 38 15 38 16 37.35 16.8 36.83 17.27 36.37 17.69 36 18.07 36 18.74 36 19.42 36.37 19.78 36.83 20.2 37.35 20.67 38 21.26 38 22.38 38 23.51 37.35 24.1 36.83 24.56 36.37 24.98 36 25.32 36 26Z"/>
<path fill="rgb(255,255,255)" fill-rule="evenodd" d="M 36 26C 36 26 35 26 35 26 35 24.88 35.65 24.29 36.16 23.83 36.63 23.41 37 23.07 37 22.4 37 21.72 36.63 21.39 36.17 20.97 35.65 20.5 35 19.92 35 18.79 35 17.67 35.65 16.99 36.17 16.52 36.63 16.1 37 16 37 15 37 15 38 15 38 15 38 16 37.35 16.8 36.83 17.27 36.37 17.69 36 18.07 36 18.74 36 19.42 36.37 19.78 36.83 20.2 37.35 20.67 38 21.26 38 22.38 38 23.51 37.35 24.1 36.83 24.56 36.37 24.98 36 25.32 36 26 36 26 36 26 36 26Z"/>
</g>
</g>
<g id="symbol3">
<path fill="rgb(227,161,1)" fill-rule="evenodd" d="M 39 38C 39 38 33 38 33 38 33 38 33 35 33 35 33 35 39 35 39 35 39 35 39 38 39 38 39 38 39 38 39 38Z"/>
<path fill="rgb(227,161,1)" fill-rule="evenodd" d="M 51 38C 51 38 45 38 45 38 45 38 45 35 45 35 45 35 51 35 51 35 51 35 51 38 51 38 51 38 51 38 51 38Z"/>
<path fill="rgb(227,161,1)" fill-rule="evenodd" d="M 51 53C 51 53 45 53 45 53 45 53 45 50 45 50 45 50 51 50 51 50 51 50 51 53 51 53 51 53 51 53 51 53Z"/>
<path fill="rgb(227,161,1)" fill-rule="evenodd" d="M 39 53C 39 53 33 53 33 53 33 53 33 50 33 50 33 50 39 50 39 50 39 50 39 53 39 53 39 53 39 53 39 53Z"/>
<g>
<use xlink:href="#symbol0"/>
<g mask="url(#mask0)"/>
<use xlink:href="#symbol0" filter="url(#filter0)"/>
</g>
<g>
<use xlink:href="#symbol1"/>
<g mask="url(#mask1)"/>
<use xlink:href="#symbol1" filter="url(#filter1)"/>
</g>
<g>
<use xlink:href="#symbol2"/>
<g mask="url(#mask2)"/>
<use xlink:href="#symbol2" filter="url(#filter2)"/>
</g>
<path fill="rgb(227,161,1)" fill-rule="evenodd" d="M 30.5 56C 31.88 56 33 54.88 33 53.5 33 53.5 33 34.5 33 34.5 33 33.12 31.88 32 30.5 32 30.5 32 29.5 32 29.5 32 28.12 32 27 33.12 27 34.5 27 34.5 27 53.5 27 53.5 27 54.88 28.12 56 29.5 56 29.5 56 30.5 56 30.5 56M 30.5 58C 30.5 58 29.5 58 29.5 58 27.01 58 25 55.99 25 53.5 25 53.5 25 34.5 25 34.5 25 32.01 27.01 30 29.5 30 29.5 30 30.5 30 30.5 30 32.99 30 35 32.01 35 34.5 35 34.5 35 53.5 35 53.5 35 55.99 32.99 58 30.5 58 30.5 58 30.5 58 30.5 58Z"/>
<path fill="rgb(227,161,1)" fill-rule="evenodd" d="M 42.5 56C 43.88 56 45 54.88 45 53.5 45 53.5 45 34.5 45 34.5 45 33.12 43.88 32 42.5 32 42.5 32 41.5 32 41.5 32 40.12 32 39 33.12 39 34.5 39 34.5 39 53.5 39 53.5 39 54.88 40.12 56 41.5 56 41.5 56 42.5 56 42.5 56M 42.5 58C 42.5 58 41.5 58 41.5 58 39.01 58 37 55.99 37 53.5 37 53.5 37 34.5 37 34.5 37 32.01 39.01 30 41.5 30 41.5 30 42.5 30 42.5 30 44.99 30 47 32.01 47 34.5 47 34.5 47 53.5 47 53.5 47 55.99 44.99 58 42.5 58 42.5 58 42.5 58 42.5 58Z"/>
<path fill="rgb(227,161,1)" fill-rule="evenodd" d="M 54.5 56C 55.88 56 57 54.88 57 53.5 57 53.5 57 34.5 57 34.5 57 33.12 55.88 32 54.5 32 54.5 32 53.5 32 53.5 32 52.12 32 51 33.12 51 34.5 51 34.5 51 53.5 51 53.5 51 54.88 52.12 56 53.5 56 53.5 56 54.5 56 54.5 56M 54.5 58C 54.5 58 53.5 58 53.5 58 51.01 58 49 55.99 49 53.5 49 53.5 49 34.5 49 34.5 49 32.01 51.01 30 53.5 30 53.5 30 54.5 30 54.5 30 56.99 30 59 32.01 59 34.5 59 34.5 59 53.5 59 53.5 59 55.99 56.99 58 54.5 58 54.5 58 54.5 58 54.5 58Z"/>
</g>
</defs>
<g>
<circle fill="rgb(255,255,255)" cx="42.00" cy="42.00" r="42.00"/>
<path fill="rgb(255,255,255)" fill-rule="evenodd" d="M 42 82C 64.06 82 82 64.06 82 42 82 19.94 64.06 2 42 2 19.94 2 2 19.94 2 42 2 64.06 19.94 82 42 82M 42 84C 18.8 84 0 65.2 0 42 0 18.8 18.8-0 42-0 65.2-0 84 18.8 84 42 84 65.2 65.2 84 42 84 42 84 42 84 42 84Z"/>
</g>
<g>
<use xlink:href="#symbol3"/>
<g mask="url(#mask3)"/>
<use xlink:href="#symbol3" filter="url(#filter3)"/>
</g>
</svg>